{
  "name": "aageyev-redis",
  "version": "0.1.2",
  "author": "Andrii Ageiev",
  "summary": "Setup latest stable redis-server on Ubuntu",
  "license": "Apache 2.0",
  "source": "https://bitbucket.org/aageyev/redis",
  "project_page": "https://bitbucket.org/aageyev/redis/wiki/Home",
  "issues_url": "https://bitbucket.org/aageyev/redis/issues",
  "dependencies": [
    {"name":"puppetlabs-apt","version_requirement":">= 1.7.0"}
  ]
}

